{"value":{"success":true,"data":[{"id_cliente":129,"responsavel":"AD\u00c9LIA","razao_social":" ADELIA C D DANTAS ME","nome_fantasia":"AD\u00c9LIA VARIEDADES","pessoa":2,"cpf_cnpj":"04.345.098\/0001-70","inscricao_estadual":"  06.313111-0","data_nascimento":"0000-00-00","contato_1":"(88) 35461-176","contato_2":"(88) 99951-0085","contato_3":"","email":"ADELIAC1@HOTMAIL.COM","endereco":" AV PERIMETRAL SUL, 580","bairro":"CENTRO","cidade":"NOVA OLINDA","estado":"CEAR\u00c1","cep":"63165-000","rota":".","status":1},{"id_cliente":158,"responsavel":"LUANA","razao_social":" ANA Q. A. PORTELA MS","nome_fantasia":"PINGO DE GENTE","pessoa":2,"cpf_cnpj":"73.784.043\/0001-89","inscricao_estadual":"06.695064-3","data_nascimento":"0000-00-00","contato_1":"(88) 99927-4554","contato_2":"","contato_3":"","email":"LOJAPINGODEGENTE2010@GMAIL.COM","endereco":"DEP FERNANDO MELO, 1081","bairro":"CENTRO","cidade":"IBIAPINA","estado":"CEAR\u00c1","cep":"62360-000","rota":".","status":1},{"id_cliente":138,"responsavel":"ROSE","razao_social":" ANA TAMIRES SANTOS DE CASTRO","nome_fantasia":"ROSE MODAS","pessoa":2,"cpf_cnpj":"34.576.265\/0001-54","inscricao_estadual":"06.140164-1","data_nascimento":"0000-00-00","contato_1":"(88) 99698-0459","contato_2":"","contato_3":"","email":"anathamires18@hotmail.com","endereco":"RUA ARISTIDES BARRETO, 372","bairro":"CENTRO","cidade":"S\u00c3O BENEDITO","estado":"CEAR\u00c1","cep":"62370-000","rota":".","status":1},{"id_cliente":76,"responsavel":"ERONILDA","razao_social":" ANTONIA ELISMAURA FERREIRA VERAS","nome_fantasia":"CASA DOS ENXOVAIS 2","pessoa":2,"cpf_cnpj":"18.920.032\/0001-70","inscricao_estadual":"06.703295-8","data_nascimento":"0000-00-00","contato_1":"(88) 99983-0439","contato_2":"","contato_3":"","email":"eronildacasadosenxovais@hotmail.com","endereco":"AV ANTONIO JOAQUIM DE SOUSA, 1076","bairro":"","cidade":"NOVA RUSSAS","estado":"CEAR\u00c1","cep":"62200-000","rota":"","status":1},{"id_cliente":171,"responsavel":"MARIO","razao_social":" ANTONIO MARIO PEREIRA DE SOUSA ","nome_fantasia":"MARCINHA MODAS","pessoa":2,"cpf_cnpj":"33.593.207\/0001-76","inscricao_estadual":"06.940325-2","data_nascimento":"0000-00-00","contato_1":"(88) 99354-3142","contato_2":"","contato_3":"","email":"marioresende222@gmail.com","endereco":"R PROFESSOR LIMA BOTELHO, 293","bairro":"CENTRO","cidade":"S\u00c3O BENEDITO","estado":"CEAR\u00c1 ","cep":"62370-000","rota":"SERRA IBIAPABA","status":1},{"id_cliente":23,"responsavel":" F A DE ARAUJO VESTUARIO ME","razao_social":" F A DE ARAUJO VESTUARIO ME","nome_fantasia":"UNIBABY","pessoa":2,"cpf_cnpj":"12.783.937\/0001-60","inscricao_estadual":"  06.573346-0","data_nascimento":"0000-00-00","contato_1":"(88) 98827-3002","contato_2":null,"contato_3":null,"email":"unibabykids07@hotmail.com","endereco":" R DOMINGOS OLIMPIO, 172","bairro":"","cidade":"Sobral","estado":"cear\u00e1","cep":"62011-140","rota":"","status":1},{"id_cliente":24,"responsavel":" FRANCISCO ESPEDITO RODRIGUES","razao_social":" FRANCISCO ESPEDITO RODRIGUES","nome_fantasia":"KAROL KIDS.","pessoa":2,"cpf_cnpj":"26.981.410\/0001-54","inscricao_estadual":"06.637490-1","data_nascimento":"0000-00-00","contato_1":"(88) 99984-5467","contato_2":"","contato_3":"","email":"karolkids11@gmail.com","endereco":"RUA DONDON FEITOSA, 107","bairro":".","cidade":"TAU\u00c1","estado":"CEAR\u00c1","cep":"63660-000","rota":"","status":1},{"id_cliente":4,"responsavel":" JOSE ROGERIO GOMES DE SOUSA","razao_social":" JOSE ROGERIO GOMES DE SOUSA","nome_fantasia":"LOJA MARJUL MODAS","pessoa":2,"cpf_cnpj":"21.349.731\/0001-17","inscricao_estadual":"063798026","data_nascimento":"0000-00-00","contato_1":"(88) 99831-0902","contato_2":null,"contato_3":null,"email":"marjul@hot","endereco":"AV. TABAJARA. 193","bairro":"","cidade":"SAO BENEDITO","estado":"CEAR\u00c1","cep":"62370-000","rota":"","status":1},{"id_cliente":21,"responsavel":" M DE F G MELO ME","razao_social":" M DE F G MELO ME","nome_fantasia":"NILFA BEBE","pessoa":2,"cpf_cnpj":"14.339.230\/0001-94","inscricao_estadual":"06.576441-2","data_nascimento":"0000-00-00","contato_1":"(88) 99733-3377","contato_2":null,"contato_3":null,"email":"nilfabebe@hotmail.com","endereco":" RUA ANTONIO MARTINS, 317 - CENTRO","bairro":"","cidade":"IP\u00da","estado":"CEAR\u00c1","cep":"62250-000","rota":"","status":1},{"id_cliente":19,"responsavel":" MARIA DA CONCEICAO AGUIAR","razao_social":" MARIA DA CONCEICAO AGUIAR","nome_fantasia":"SONHO REAL","pessoa":2,"cpf_cnpj":"18.609.207\/0001-23","inscricao_estadual":"06.521409-9","data_nascimento":"0000-00-00","contato_1":"(88) 99429-4076","contato_2":null,"contato_3":null,"email":"ceicaoaguiar@hotmail.com","endereco":"RUA CONSTRUTOR GONCALO VIDAL, 531","bairro":"","cidade":"MUCAMBO","estado":"CEARA","cep":"62170-000","rota":"","status":1},{"id_cliente":100,"responsavel":"FRANCYS MEIRE","razao_social":" YAGO BRAGA MACEDO","nome_fantasia":"PONTO DO BEB\u00ca","pessoa":2,"cpf_cnpj":"31.754.531\/0001-01","inscricao_estadual":"06.783779-4","data_nascimento":"0000-00-00","contato_1":"(88) 99912-9972","contato_2":"","contato_3":"","email":"HAROLDOFARIASMACEDO@HOTMAIL.COM","endereco":"R JOSE EDMILSON AGUIAR, 102","bairro":"CENTRO","cidade":"RERIUTABA","estado":"CEAR\u00c1","cep":"62260-000","rota":".","status":1},{"id_cliente":125,"responsavel":"LEONARDO MENDES DE OLIVEIRA","razao_social":".","nome_fantasia":"SMELL PERFECT","pessoa":1,"cpf_cnpj":"064.636.533-90","inscricao_estadual":null,"data_nascimento":"0000-00-00","contato_1":"(88) 99713-5339","contato_2":"","contato_3":"","email":"LEONARDOMEENDEES@HOTMAIL.COM","endereco":"TRAVESSA NOSSA SENHORA DO CARMO","bairro":"CENTRO","cidade":"S\u00c3O BENEDITO","estado":"CEARA","cep":"62370-000","rota":"","status":1},{"id_cliente":64,"responsavel":"BRITO \/ L\u00daCIA","razao_social":"A C DE BRITO - ME","nome_fantasia":"LOJA BRITO","pessoa":2,"cpf_cnpj":"05.610.665\/0001-30","inscricao_estadual":"19.451.957-0","data_nascimento":"0000-00-00","contato_1":"(86) 99427-5195","contato_2":null,"contato_3":null,"email":"lojabritoburiti@hotmail.com","endereco":"AV:JOSIAS LEODIDO,701","bairro":"","cidade":"BURITI DOS LOPES","estado":"PIAUI","cep":"64230-000","rota":"","status":1},{"id_cliente":130,"responsavel":"PAULA BARROS","razao_social":"A E DE OLIVEIRA SOUSA - ME","nome_fantasia":"PINGO DE GENTE","pessoa":2,"cpf_cnpj":"11.149.662\/0001-44","inscricao_estadual":"06.385.192-0","data_nascimento":"0000-00-00","contato_1":"(85) 99963-0939","contato_2":"(85) 99970-9241","contato_3":"","email":"PAULABARROS69898@GMAIL.COM","endereco":"RUA: MARIANO PORFIRIO,97","bairro":"CENTRO","cidade":"BATURITE","estado":"CE","cep":"62760-000","rota":"","status":1},{"id_cliente":1,"responsavel":"A P GOMES DE LIMA ME","razao_social":"A P GOMES DE LIMA ME","nome_fantasia":"BELEZA KIDS","pessoa":2,"cpf_cnpj":"25.093.686\/0001-33","inscricao_estadual":"065339959","data_nascimento":"0000-00-00","contato_1":"(88) 99917-9256","contato_2":"","contato_3":"","email":"joaocarlosolima@gmail.com","endereco":"RUA JOSE ARMANDO RODRIGUES,  389","bairro":"CENTRO","cidade":"S\u00e3o benedito ","estado":"Cear\u00e1 ","cep":"62370-000","rota":"","status":1}],"pagination":{"current_page":1,"per_page":15,"total":176,"last_page":12,"from":1,"to":15}},"expires":1776180084}